/Users/matrixuser/Desktop/WorksSpaces/TrueFitWorkspace/GoogleHomePageAutomationTask/src/test/java/com/truefithometest/utilities/TestConfig.java
/Users/matrixuser/Desktop/WorksSpaces/TrueFitWorkspace/GoogleHomePageAutomationTask/src/test/java/com/truefithometest/testcases/GoogleHomePage.java
/Users/matrixuser/Desktop/WorksSpaces/TrueFitWorkspace/GoogleHomePageAutomationTask/src/test/java/com/truefithometest/rough/TestProperties.java
/Users/matrixuser/Desktop/WorksSpaces/TrueFitWorkspace/GoogleHomePageAutomationTask/src/test/java/com/truefithometest/utilities/ExcelReader.java
/Users/matrixuser/Desktop/WorksSpaces/TrueFitWorkspace/GoogleHomePageAutomationTask/src/test/java/com/truefithometest/rough/TestTimeStamp.java
/Users/matrixuser/Desktop/WorksSpaces/TrueFitWorkspace/GoogleHomePageAutomationTask/src/test/java/com/truefithometest/utilities/TestUtil.java
/Users/matrixuser/Desktop/WorksSpaces/TrueFitWorkspace/GoogleHomePageAutomationTask/src/test/java/com/truefithometest/utilities/ExtentManager.java
/Users/matrixuser/Desktop/WorksSpaces/TrueFitWorkspace/GoogleHomePageAutomationTask/src/test/java/com/truefithometest/listeners/CustomListeners.java
/Users/matrixuser/Desktop/WorksSpaces/TrueFitWorkspace/GoogleHomePageAutomationTask/src/test/java/com/truefithometest/base/TestBase.java
